…
### Extract summary downcore age-depth model

``` r
summary(hambac_1)
#> # A tibble: 22 × 10
#>    depth  mean    sd `2.5%` `15.9%` `25%` `50%` `75%` `84.1%` `97.5%`
#>    <dbl> <dbl> <dbl>  <dbl>   <dbl> <dbl> <dbl> <dbl>   <dbl>   <dbl>
#>  1   1.5 4565.  70.3  4433.   4495. 4526. 4563. 4607.   4630.   4710 
#>  2   6.5 4630.  69.7  4485.   4560. 4581. 4632. 4679.   4701.   4762.
#>  3  11.5 4697.  64.4  4565.   4623. 4649. 4709. 4744.   4759.   4802.
#>  4  16.5 4765.  55.6  4643.   4700. 4723. 4784. 4806.   4816.   4840.
#>  5  21.5 4864.  48.8  4768.   4828. 4839. 4856. 4885.   4913.   4971.
#>  6  26.5 5082. 106.   4884.   4963. 5002. 5087. 5164.   5199.   5259.
#>  7  31.5 5330.  64.9  5208.   5272. 5289. 5321. 5377.   5405.   5449.
#>  8  36.5 5479.  46.1  5376.   5437. 5452. 5479. 5508.   5525.   5566.
#>  9  41.5 5579.  43.5  5489.   5535. 5554. 5582. 5603.   5622.   5660.
#> 10  46.5 5677.  52.9  5586.   5631. 5641. 5674. 5706.   5719.   5828.
#> # ℹ 12 more rows
```

### Get the individual model realisations

``` r
predict(hambac_1)
#> # A tibble: 99,022 × 3
#>     iter depth   age
#>    <dbl> <dbl> <dbl>
#>  1   501   1.5 4691.
#>  2   501   6.5 4730.
#>  3   501  11.5 4742.
#>  4   501  16.5 4802.
#>  5   501  21.5 4851.
#>  6   501  26.5 4986.
#>  7   501  31.5 5299.
#>  8   501  36.5 5535.
#>  9   501  41.5 5636.
#> 10   501  46.5 5714.
#> # ℹ 99,012 more rows
```
…
### Get the ages interpolated at specific depths

``` r
spec_depths <- predict(hambac_1, depth = c(10:15))

spec_depths
#> # A tibble: 27,006 × 3
#>     iter depth   age
#>    <int> <int> <dbl>
#>  1     1    10 4738.
#>  2     1    11 4741.
#>  3     1    12 4748.
#>  4     1    13 4760.
#>  5     1    14 4772.
#>  6     1    15 4784.
#>  7     2    10 4738.
#>  8     2    11 4740.
#>  9     2    12 4747.
#> 10     2    13 4759.
#> # ℹ 26,996 more rows
```
…
